<?xml version="1.0" encoding="utf-8"?>
<!-- Generator: Adobe Illustrator 25.0.0, SVG Export Plug-In . SVG Version: 6.00 Build 0)  -->
<svg version="1.1" id="Layer_1" xmlns="http://www.w3.org/2000/svg" xmlns:xlink="http://www.w3.org/1999/xlink" x="0px" y="0px"
	 viewBox="0 0 512 512" style="enable-background:new 0 0 512 512;" xml:space="preserve">
<style type="text/css">
	.st0{fill:#FFFFFF;}
	.st1{fill:#F26822;}
	.st2{fill:#4D4D4D;}
</style>
<g>
	<path class="st0" d="M512,256c0,141.4-114.6,256-256,256S0,397.3,0,256S114.6,0,256,0S512,114.6,512,256z"/>
	<path id="_149931032" class="st1" d="M256,0C114.7,0-0.1,114.8,0.1,256c0,28.2,4.5,55.4,13,80.8h76.6V121.5L256,287.8l166.4-166.4
		v215.3H499c8.5-25.4,12.9-52.6,13-80.8C512.2,114.6,397.3,0,256,0L256,0z"/>
	<path id="_149931160" class="st2" d="M217.7,326.1l-72.6-72.6V389H89.6l-52.4,0C82.2,462.7,163.4,512,256,512s173.8-49.3,218.8-123
		H366.8V253.5l-72.6,72.6L256,364.3L217.7,326.1L217.7,326.1L217.7,326.1z"/>
</g>
</svg>
